{
  "languages": [
    "en-GB",
    "en-US"
  ],
  "device_sets": [
    {
      "devices": [
        "iphone_se",
        "iphone_8",
        "iphone_8plus",
        "iphone_xs",
        "iphone_xs_max"
      ],
      "frame_colours": {
        "iphone_se": "rose_gold",
        "iphone_8": "gold",
        "iphone_8plus": "gold",
        "iphone_xs": "silver",
        "iphone_xs_max": "silver"
      },
      "screens": 6,
      "background": {
        "gradient_from": "#1E6794",
        "gradient_to": "#17213B",
        "gradient_angle": 20
      },
      "frames": [
        {
          "source": "CommandList.png",
          "x_location": 1.4,
          "y_location": 0.0,
          "scale": 1,
          "rotation": 35
        },
        {
          "source": "CommandDetail.png",
          "x_location": 2.8,
          "y_location": 0.0,
          "scale": 1,
          "rotation": -20
        },
        {
          "source": "CommandList.png",
          "x_location": 4,
          "y_location": 0.1,
          "scale": 1,
          "rotation": 0
        },
        {
          "source": "CommandDetail.png",
          "x_location": 5,
          "y_location": 0.1,
          "scale": 1,
          "rotation": 15
        },
        {
          "source": "CommandList.png",
          "x_location": 6.1,
          "y_location": 0.1,
          "scale": 1,
          "rotation": -10
        }
      ],
      "text_styles": {
        "style1": {
          "font": "ArialB",
          "size": 1.0,
          "colour": "#ffffff"
        },
        "style2": {
          "font": "GeorgiaI",
          "size": 1.0,
          "colour": "#88ffff"
        }
      },
      "texts": [
        {
          "en-GB": "Veggies es bonus\nvobis, proinde\npostulo essum\nmagis",
          "en-US": "Veggies es bonus\nvobis, proinde\npostulo essum\nmagis",
          "style": "style1",
          "screen": 1,
          "y_location": 0,
          "alignment": "left"
        },
        {
          "en-GB": "Gumbo beet nuts\ncorn soko endive",
          "en-US": "Grape wattle seed\nkombu beetroot",
          "style": "style1",
          "screen": 2,
          "y_location": 0,
          "alignment": "centre"
        },
        {
          "en-GB": "Turnip greens\nyarrow ricebean\nrutabaga",
          "en-US": "Dandelion turnip\nburdock yarrow\nchickpea",
          "style": "style1",
          "screen": 3,
          "y_location": 0,
          "alignment": "right"
        },
        {
          "en-GB": "Nori grape silver\nbeet broccoli\nplum beet greens",
          "en-US": "Beet kakadu plum\nkomatsuna\nblack-eyed pea",
          "style": "style2",
          "screen": 4,
          "y_location": 0,
          "alignment": "centre"
        },
        {
          "en-GB": "Celery quandong\nswiss chard okra\nearthnut pea",
          "en-US": "Gourd cauliflower\ngarbanzo yarrow\nsalsify chicory",
          "style": "style2",
          "screen": 5,
          "y_location": 0,
          "alignment": "centre"
        },
        {
          "en-GB": "Pea horseradish\nazuki bean\nlettuce",
          "en-US": "Sea lettuce water\nspinach gram\nfava bean",
          "style": "style2",
          "screen": 6,
          "y_location": 0,
          "alignment": "left"
        }
      ]
    }
  ]
}